10X Norm/BRCA and SmartSeq2 TNBC PDX Model Integration
…
norm.brca.pdx.integrated.res0.5.RNA.markers %>% group_by(cluster) %>% top_n(n = 2, wt = avg_logFC)

## # A tibble: 24 x 7
## # Groups:   cluster [12]
##    p_val avg_logFC pct.1 pct.2 p_val_adj cluster gene  
##    <dbl>     <dbl> <dbl> <dbl>     <dbl>   <int> <fct> 
##  1     0      2.35 0.382 0.171         0       0 MUCL1 
##  2     0      1.80 0.997 0.896         0       0 TMSB4X
##  3     0      2.54 0.627 0.17          0       1 S100A8
##  4     0      2.40 0.893 0.343         0       1 LTF   
##  5     0      2.16 0.952 0.548         0       2 MT1X  
##  6     0      1.88 1     0.816         0       2 MT2A  
##  7     0      1.98 0.847 0.355         0       3 KRT23 
##  8     0      1.25 0.601 0.278         0       3 KRT16 
##  9     0      2.01 0.989 0.66          0       4 KRT14 
## 10     0      1.79 0.726 0.463         0       4 CYR61 
## # ... with 14 more rows
…
